451200 102000
191100 365600
412000 604500
81300 493700
193300 907700
228100 717200
47700 200300
186800 143400
317600 673100
175000 754600
3200 852800
419400 150500
213600 735400
171800 910100
322400 381000
361200 62200
462000 840600
363800 592200
458700 985600
124300 42800
249600 13600
476600 370700
2500 663300
184900 850100
102200 360300
315000 569200
374800 230900
354800 364300
311500 228200
229200 13500
338700 130500
106600 742400
313600 791700
144400 844100
282600 140700
423600 967000
497200 216500
14600 632100
448400 684200
171700 739000
366800 945900
474600 76300
447900 103500
432300 328400
354600 670700
294500 995300
60500 343400
167400 987600
204000 732900
313300 847000
349200 944500
107700 352000
196700 487500
351900 218700
114300 332900
162600 962300
1200 957700
225400 478700
367200 392200
76600 621300
61900 473800
444000 400900
477200 832200
461400 529400
57600 292600
226800 803400
296700 41700
475500 422800
86300 988000
52800 41200
222500 329000
88700 596500
497800 998600
3500 529100
222700 64600
376800 483800
310300 417100
288400 986200
439600 890200
197100 232400
444000 79000
84700 11600
440700 558300
226000 999100
434300 580000
330300 599100
356100 759400
321200 970400
335800 467700
269800 76800
473500 288200
178100 662700
188300 873600
82700 830400
347900 367500
167300 824200
475500 846400
134700 30100
102000 761400
65300 10100
65300 274400
416200 84300
125700 136200
435900 298600
362800 878300
47600 369600
444400 442200
156100 784700
478100 528800
163500 834100
1600 556100
415100 614100
227700 6700
238300 53900
427200 231000
135000 13700
209800 277300
347400 313700
456600 242700
480300 325100
256900 250400
471500 684400
71900 284000
182000 917500
390400 607600
61100 274200
418100 381100
474000 703800
444000 744800
5200 792200
344100 100000
302900 545900
284100 550700
19300 816700
155800 927900
412600 280000
297000 504700
221700 956000
182700 221100
217500 995200
407800 811100
496100 795600
296400 522500
95300 994700
339200 812900
491300 921900
303500 447800
93600 536300
270400 885000
319200 443900
30300 360800
318000 680600
426400 659600
221700 641100
112200 624300
340000 342300
244300 898800
375900 942300
196400 865600
312000 809400
347600 200000
111200 533900
262600 329100
178300 735900
410300 412500
133600 320100
137500 495500
232900 544800
298000 158900
382500 166600
270500 994400
53700 440300
210700 672300
235500 457600
315900 518100
425100 46100
49600 228300
304000 366400
174200 301100
321700 903900
320100 628100
406700 794900
145100 855700
254700 395600
325700 413800
118600 879900
23300 810400
146900 323200
398900 415600
255600 368800
36800 147600
430200 313400
126500 171300
286300 771700
122100 425300
389600 831700
130600 408000
27100 598400
164400 182300
471200 43600
477600 687000
406700 602000
25400 163000
454200 369000
391800 402800
442200 145600
470700 727300
476300 353100
350700 562000
178800 208200
353400 594800
154300 368800
290300 530300
237700 505700
53700 398800
335700 303700
451700 518300
141000 428700
268300 969900
87700 184600
179600 192600
433100 933100
229400 397600
365900 17800
336800 683800
117400 885900
275100 347900
469800 623600
143300 97900
282700 771200
470700 120700
436600 904100
371000 59600
299700 592100
369100 379600
187300 17800
63200 439500
3200 358200
49000 921400
164100 493200
29900 339100
99700 256100
92100 827000
286600 271900
324500 45200
340900 366400
51000 356200
461000 274900
374400 92500
90000 80700
