413207 191878
285496 118526
84518 158773
387554 61780
116447 150841
65905 293791
95716 493372
350392 272985
350910 45087
317843 69704
268048 59099
117890 263507
156281 394135
409779 415538
132913 401611
55321 484429
420566 163757
123264 171079
148995 401373
202020 438834
74851 184455
487776 243649
484130 248426
369077 297293
146694 436455
268635 84796
28442 114950
36828 241431
195661 115579
308845 453250
248436 186373
16708 141708
276108 244398
31677 3134
146800 251796
497348 492525
344083 220803
482217 138451
33808 57275
364340 39761
108917 459013
69320 309908
48259 114056
173106 196999
335237 113426
278393 171015
435024 285594
452571 36839
165870 205844
99672 297688
453328 166871
225327 338917
156275 165970
135603 157761
196661 375877
1901 489628
477837 347305
362170 235653
393664 135642
6937 368671
10910 455891
96100 449847
111964 172559
391001 158159
441986 172195
92051 142563
457470 222661
490605 399638
162282 493918
374091 253796
109654 6428
56016 81911
442120 303132
191044 118710
334287 77632
213818 148489
344188 340779
192690 252346
154316 180883
371730 218227
309619 28686
58203 495492
371803 267159
373774 421266
446747 319762
458975 326608
16810 63325
470218 98733
176810 232222
2843 281343
251189 438007
227744 236586
270818 495430
84553 398174
275559 115572
417818 483452
105606 131189
396865 318927
383780 380946
475133 405522
217800 52290
85229 91567
293705 290864
340711 286625
405806 155883
423512 81356
409413 147368
475719 371070
191014 32591
243525 282490
428230 224155
1743 31880
197003 151798
27886 59212
143812 152296
299390 486211
192726 425306
489054 456755
145054 52874
417069 343100
488656 54495
414752 180175
213171 469498
458586 127508
471114 422019
249606 269071
20987 212111
155286 13578
451206 441128
429510 294941
314630 136605
148059 371921
157559 317337
146072 133921
220238 147183
169872 433481
303926 393064
423396 306970
390419 470907
33948 88595
324418 343974
146828 292343
489174 152743
178529 9671
483913 350044
284961 251093
97099 29809
303939 96493
310991 382621
70089 133498
405207 120485
132939 208250
266800 379378
91678 287108
274863 206513
319061 195007
95434 156045
222357 232428
275999 102558
183266 25456
142357 345522
240625 207172
293457 402463
208031 264706
52324 175531
198682 455451
197356 287516
124613 210436
216829 207684
307731 8814
322165 44853
80375 335279
246514 415980
18918 257652
277637 319088
428320 77285
474959 358215
371570 358451
360935 340068
91214 273258
43671 395704
11849 159735
320996 97432
51607 497674
144820 147658
144345 464982
212599 355393
459410 120304
93217 471924
95459 83646
324105 326747
9797 231613
425236 153467
16107 397528
179631 52383
179485 303115
131603 122401
267446 38049
337977 12736
188405 5201
336849 147833
78295 66563
355238 84998
278738 402426
291858 329052
20023 358723
218857 66186
420271 163895
402139 394264
70782 394189
189137 16361
171110 238512
183216 7444
291803 279741
418701 22470
487470 171710
329038 167682
252942 380961
491696 122445
216986 136498
420219 344457
22423 386116
82063 269013
55908 64757
31883 487583
455783 404447
309708 290033
334487 119295
425490 357188
86100 79429
133809 367285
443822 164982
147512 451055
143723 439906
437167 207705
177515 273555
417716 57161
48444 289595
347806 227704
30623 465738
60886 63085
207587 320143
102146 413739
7831 279430
496885 21404
431896 56148
127658 389670
117373 250283
115551 22595
480353 166455
372444 370877
135724 284075
54428 3134
275558 142951
289151 370155
256094 463021
274465 67706
202819 377864
29418 231717
242493 83563
201135 490745
345888 349120
245896 392168
174381 107811
90045 123599
233664 116586
110822 339615
340553 264088
426353 258675
116657 109113
183519 259898
114317 236524
251225 252619
314572 41265
74342 80797
416919 358954
80938 340025
324139 388929
38262 390150
217020 100668
