128580 563864 470
819594 384272 509
554954 101913 470
12835 434041 449
833819 507880 509
538393 48346 470
72391 812016 509
601041 203754 470
120533 470428 449
132616 46316 354
401306 945712 525
188500 618511 470
87430 36908 351
367138 448554 449
706742 529046 509
933426 547837 525
485390 401976 449
214432 858215 525
209141 440720 449
191157 756959 509
198805 310207 443
933935 623175 525
640247 360238 509
817303 989874 525
78487 20959 351
962730 464109 525
185176 985855 525
469083 87282 449
30218 982057 525
452692 777408 509
467741 403411 449
877866 16370 525
281054 151867 443
500721 155944 449
600648 303695 470
680605 391858 509
733721 883833 525
595551 459149 470
157964 506243 449
172442 443759 449
112163 652746 509
868169 125603 525
487901 219437 449
301869 872510 525
482754 765290 509
29535 9769 308
881867 450307 525
1334 397238 443
687181 859712 525
648390 917981 525
802031 863899 525
906605 115577 525
433280 168547 449
282069 103138 443
595549 749592 509
894666 120664 525
986432 234169 525
344995 438051 449
801798 607356 509
209215 588760 470
270340 542939 470
243931 447243 449
267321 609034 470
22870 363123 443
704779 703412 504
758403 72438 509
528534 55353 470
168621 656042 509
286655 352766 441
649786 592651 509
387088 975576 525
708705 537639 509
586716 414753 470
838965 836321 525
310833 472787 449
232394 818901 509
164268 748333 509
123251 602196 470
84437 321023 443
535554 388960 470
691050 671523 398
296887 6627 443
211004 78648 383
542966 970778 525
13179 267751 443
391195 780159 509
578381 672834 509
53199 482365 449
726349 566055 509
393895 83555 443
529404 634728 509
394783 987253 525
231469 588558 470
243521 529636 470
312854 279164 389
518383 274080 470
553845 362972 470
777736 10664 509
575772 940498 525
38566 771780 509
702698 294877 509
907902 540130 525
342264 169361 443
770865 668393 504
199999 441315 449
255768 768005 509
247116 135206 443
993350 596598 525
593704 558701 434
623742 247096 470
488838 484233 382
340042 209929 443
46221 765162 509
574223 434999 470
377380 506830 449
416313 232542 449
558258 23575 470
437818 754387 509
549136 856857 525
609744 936175 525
639001 508535 509
672844 260153 509
751825 451384 509
490946 19189 449
879064 227407 525
987155 215885 525
192291 931043 525
92432 899663 525
716417 858478 525
106061 830974 509
849963 808123 525
248353 981595 525
935317 767589 525
252697 983573 525
331261 687628 509
706999 527304 509
23973 325892 443
299331 99362 443
418061 796064 509
689581 538737 509
977426 690576 525
190767 553476 470
133331 455445 449
210630 491547 449
421667 396159 449
180971 724550 509
352342 52776 443
464334 303381 449
477712 240412 449
25569 843919 525
118608 561456 470
735028 91456 509
222711 902063 525
42265 545069 470
604935 181761 470
476258 912156 525
868619 123528 525
660551 12835 509
797093 706987 468
879260 305434 525
754570 973156 525
584395 733779 509
468970 939757 525
952680 205935 525
146634 839018 525
555467 678244 509
383856 301940 441
85712 442890 449
793177 999785 525
543958 759217 509
810165 147057 509
345749 748498 509
421489 758368 509
749410 646835 504
264110 25439 443
254346 166088 443
954779 290628 525
242658 878842 525
376485 206165 443
647992 507120 509
684840 347445 509
126751 403711 443
774001 559313 509
719532 92121 509
265232 756152 509
901881 517325 525
618155 885571 525
433176 364479 449
712580 563419 509
80726 412620 449
686850 671197 385
329026 7617 443
922116 290358 525
305094 127199 443
844392 188229 525
517676 500547 470
600288 839738 525
840487 483755 525
226636 559554 470
198019 355151 443
462138 986106 525
598065 256163 470
779029 781818 362
572679 716752 509
737642 188562 509
57162 615839 470
990830 12355 525
781046 148373 509
400121 612208 470
616280 71496 470
347371 177475 443
686276 314356 509
106659 926847 525
202015 716972 509
807414 936653 525
524873 733135 509
653194 284394 509
662144 7739 509
794685 757329 468
919542 523720 525
547364 317827 470
116457 687996 509
360110 622811 470
119307 683362 509
146391 557804 470
853759 320598 525
925731 38751 525
305764 787959 509
75748 302987 443
815787 150699 509
306564 539166 470
737819 735869 380
734 529148 470
584664 847969 525
404501 932559 525
364424 653526 509
150084 549605 470
227541 741165 509
475324 618115 470
850986 888181 445
763385 376222 509
179860 439464 449
809125 910384 525
872615 362816 525
581216 779229 509
686564 432301 509
576656 570240 377
901716 909867 445
249391 146582 443
133597 187664 383
358702 247915 441
