196548 999443 525
654242 918612 525
754036 182241 509
307807 59617 443
464532 1415 449
561553 220484 470
644018 689946 442
174551 489607 449
25941 371851 443
299099 732246 509
87842 367376 443
775609 157650 509
110402 525230 470
21889 721845 509
240376 296160 407
259460 368206 441
370245 185867 443
462821 78152 449
474054 69823 449
944879 108996 525
632578 122651 509
272978 285421 389
470799 617686 470
287340 107875 443
739812 235344 509
902817 928854 476
527692 321617 470
792918 707890 468
763051 135160 509
352817 722006 509
280341 198899 443
266129 127349 443
185455 546926 470
295098 432443 449
845575 496303 525
912340 233294 525
274832 913239 525
894166 749289 525
572547 789977 509
472865 819688 509
208357 274673 443
919608 514118 525
354038 796250 509
270905 871015 525
212856 685127 509
565797 612371 434
190753 280884 443
181309 525561 470
788891 386382 509
159002 109910 383
594121 213989 470
556810 595255 434
196352 590777 470
720537 891322 525
133066 913541 525
756295 460930 509
896348 991948 507
241791 922209 525
492688 79924 449
21049 367843 443
87485 529930 470
376888 89811 443
628944 479040 509
382175 401155 436
628762 457086 509
453597 340647 449
345638 868454 525
553002 96925 470
334506 593537 470
713084 2491 509
839557 267721 525
809018 254033 509
762332 414587 509
528708 4608 470
843833 267339 525
332796 641328 509
186698 441614 449
296206 464050 449
266119 210707 443
191397 257428 443
119077 147272 375
586917 972919 525
415573 228373 449
71384 463113 449
389787 443065 449
602517 758151 509
143450 485203 449
335290 163592 443
332934 169879 443
229509 68474 386
685496 660889 442
908139 57687 525
972090 211002 525
951383 450631 525
576042 20772 470
733527 586333 509
327907 356727 441
217874 754814 509
433829 601327 470
434185 521491 470
706653 341226 509
27443 472954 449
189454 345010 443
433305 183561 449
517836 741461 509
604704 721309 509
533450 636546 509
774534 185709 509
936828 63024 525
242399 192979 443
490117 722539 509
205023 797422 509
404956 260833 441
425486 468250 444
494159 293827 449
992213 875483 507
203086 996822 525
386239 134236 443
610031 69244 470
766160 210756 509
148086 498111 449
960790 722534 525
570097 304947 470
87479 525938 470
586686 858645 525
225782 156596 386
48555 173501 383
972124 149267 525
73135 16674 340
451003 963302 525
566695 375539 470
62864 255900 443
636861 122246 509
961297 947942 414
130406 23511 354
240666 123345 443
263542 452929 449
695146 836746 504
828405 92346 509
279347 329081 389
103749 241170 443
464717 573788 470
935228 57140 525
639091 189711 509
542902 277768 470
630026 502333 509
958708 72040 525
627767 254865 509
546208 651203 509
734190 517970 509
142481 303709 443
406699 136688 443
314695 798360 509
674356 138513 509
628378 887373 525
761357 656026 504
746900 475624 509
273918 134556 443
818361 757987 468
217808 972926 525
586974 829783 509
939053 849491 476
836483 953422 525
357810 193837 443
131444 523644 470
804754 184112 509
976113 364131 525
442014 663432 509
200599 405449 443
670363 998281 525
294013 535997 470
497809 889913 525
957702 876623 507
255973 323128 407
454860 523946 470
722420 277262 509
307669 302586 340
338777 921138 525
553827 633438 509
101190 177724 383
755684 170462 509
966408 827432 525
849326 53035 525
402203 54117 443
810696 489568 509
878054 228708 525
29497 419431 449
489745 371578 449
96519 469386 449
844209 675747 525
908709 284776 525
238942 495447 449
73786 52086 340
811795 733196 468
753266 578719 509
196102 387348 443
21779 952631 525
583273 44027 470
516644 220364 470
553409 391831 470
247262 758137 509
297431 445814 449
63966 863585 525
63092 423260 449
839614 554199 525
165563 705607 509
257261 271615 407
666651 820197 504
706834 355881 509
144692 620882 470
427374 39794 449
834729 821784 419
475506 417130 444
479796 286141 449
83054 552366 470
349756 5377 443
896736 568025 525
641025 400834 509
72117 557707 470
303677 847070 525
647918 500796 509
934239 815255 525
848545 729431 525
553769 243559 470
126824 307585 443
449617 55664 449
681652 71999 509
