742318 818041
488432 892604
388986 347593
296635 391573
143454 451845
683683 508316
327227 855045
765409 610012
61812 991251
441949 408174
185574 830968
913848 108238
141061 214880
968532 747988
186365 850891
859532 673967
63225 984339
813464 178555
109322 26344
707770 30821
82450 126265
237668 257667
462775 476068
302702 742034
985266 275141
333349 215704
252809 261361
952126 125248
172913 776208
246516 912781
950455 474224
731999 270057
143441 111833
249257 695099
958705 263827
904667 966847
237597 175625
400840 477342
628358 542551
56671 594745
884784 372502
805860 144980
918332 6655
98257 33127
723785 744137
757910 344299
242486 538006
539046 762583
446037 374093
175153 343285
177390 241277
619433 411217
945520 343677
93012 10525
98980 89606
178310 131857
887330 582140
621425 124439
872491 735272
582246 150526
458587 441416
964259 397476
439664 683382
204385 439003
78206 420587
303109 559219
794145 267575
710375 405548
708199 537083
987620 198494
268237 365852
831980 843241
303839 996826
940429 355569
203976 702326
254094 89965
550834 272378
939219 549662
78879 546429
815441 576763
720205 761687
610370 604072
429521 550784
378247 631584
157864 612300
707712 378913
623176 260862
696312 850564
632586 919145
52046 699379
609831 357088
333005 846363
969489 288890
519495 852324
461303 195254
462039 278269
621738 923445
96456 720051
423408 700388
660277 794884
984327 287317
56646 523094
732079 130721
848031 450176
937983 513706
193052 889370
81320 434988
146944 282224
205460 698599
182319 860070
946183 962744
557157 500334
117448 754341
345533 952378
174362 518589
352020 190200
467518 595764
149505 832387
546887 871133
571227 951861
349550 946266
930773 936817
539982 587146
373087 833488
511574 576688
394083 408350
454965 642375
581872 753372
960952 292684
396734 164467
911155 299635
469532 509248
990885 860817
672594 983809
337605 822181
956618 632243
504179 300082
741175 245485
14855 690714
180552 248485
939634 106714
737077 477621
878382 350297
713834 927456
466731 188034
644112 310807
372273 856778
534810 421974
183001 800508
780475 377422
923742 274842
450838 339356
555478 546863
673627 929530
536460 887157
737722 557236
638148 461105
467652 646651
871476 888994
271516 460528
332984 642730
349748 66079
223715 412701
598545 382177
588414 90473
681801 584190
771188 678743
944983 41668
656179 223795
899534 320805
298168 240126
451808 500788
73997 169701
344086 247421
384018 708335
866213 913405
382079 899261
573414 377381
875531 864802
139994 174542
851479 761777
252389 295475
558675 10344
951582 690476
746296 628380
207739 245125
128191 21728
961382 473475
62347 444423
497068 227226
753681 266941
744883 444978
28896 738716
11888 340388
329813 341912
374768 562188
39606 668289
397457 642486
776360 401597
57568 71349
430532 624274
453818 974942
316634 738980
5412 814204
770619 639514
308821 155983
598113 353695
671874 130324
12490 384320
854302 684885
849934 777391
363416 239328
567487 72553
524050 987022
556009 956358
120691 801259
849013 75439
128987 692825
330361 160397
746715 768672
501429 901523
493703 665130
814911 273764
94880 452591
858938 496823
2830 445951
431034 506867
40815 843370
364781 385677
242880 784080
470140 102574
2922 927242
796838 335353
981691 517862
788779 188162
833652 677979
252260 684739
349572 160058
816004 732839
179590 177056
773025 531385
611150 582096
910438 620478
299812 281386
72678 65712
491628 954404
218136 845080
647347 464182
911197 379232
207024 507204
378991 109085
640918 120385
74931 592180
699088 934504
421166 788114
937258 458145
762785 233742
781107 264660
174343 915497
817075 979867
912493 860250
893873 869802
195101 452115
232454 25471
643415 380480
626831 813509
625141 318984
451568 492884
69809 905873
817817 927798
82200 508759
655949 299275
790375 642363
833473 907700
513885 570681
275858 962409
884629 161142
596514 71436
698665 425519
186503 122710
612984 996299
886076 639388
667995 247857
32110 841383
919158 827950
809330 64374
226316 444178
381698 269754
409393 993299
738580 353949
515104 29828
719889 995920
744629 434264
434355 686558
917163 718952
494273 95025
623606 877684
444444 606355
992630 403749
