115169 930477 525
831283 565915 509
781218 906252 525
625606 464797 470
509838 117486 449
355010 651145 509
318091 262223 407
659909 389870 509
445449 35122 449
637281 759677 504
13313 175938 383
352029 207434 443
443220 47775 449
858721 525155 525
111846 782821 509
997050 75682 525
493041 203824 449
869201 820312 525
941046 784263 525
217773 459721 449
245688 515343 470
965385 746972 525
552367 986203 525
6542 509493 449
90612 928562 525
177891 642527 509
371399 272874 441
166803 241710 443
472017 201362 449
613819 845084 525
149225 759192 509
885433 602170 525
130919 210185 383
277621 115895 443
273296 361293 441
500567 97409 449
549965 509107 470
873383 983581 507
220925 426653 449
999371 326479 525
745880 316284 509
197480 621736 470
58175 781296 509
360452 726144 509
487014 375593 449
569078 114032 470
79344 13019 351
766550 352728 509
658756 980531 525
488584 836682 509
715654 996265 525
453090 7196 449
332070 322410 384
657967 752730 504
791354 99635 509
728855 381903 509
980799 18559 525
899051 413468 525
678646 542859 509
575744 764826 509
114992 609262 470
657021 837087 504
905634 24510 525
918506 422210 525
913900 166209 525
755455 940920 525
495301 734399 509
808606 718109 468
600292 515507 452
656283 794459 504
962046 372336 525
804077 228072 509
774474 427630 509
423695 465136 444
542443 861752 525
285544 927057 525
351058 698487 509
453106 82416 449
918997 775675 525
480426 171358 449
214571 906576 525
423113 45111 449
275027 746387 509
822624 691839 504
883847 886033 370
202263 33448 383
794395 142993 509
673850 553285 509
170740 877662 525
376654 217274 443
911414 216451 525
944462 599741 525
24697 825977 509
324267 674035 509
650655 775999 504
55454 984382 525
755658 462130 509
66191 330906 443
252110 496780 449
256666 713049 509
97420 588714 470
413334 179155 449
232578 156677 443
322561 668878 509
442703 503843 444
980803 955671 458
768589 536722 509
468638 582653 470
661685 909384 525
329699 737160 509
936190 220728 525
744425 592841 509
343691 940144 525
771945 742197 468
744289 526725 509
319872 9634 443
239070 996109 525
490601 550451 470
171663 475814 449
601939 859671 525
175681 3109 383
232885 481206 449
507328 848088 525
962881 502847 525
70117 144541 375
847570 701982 525
612397 864158 525
492942 984721 525
377259 273914 441
87154 953810 525
854916 310738 525
691415 875956 525
77797 283808 443
264170 437261 449
979540 946730 458
983072 784754 525
913763 805503 525
219421 304193 443
958514 625726 525
847315 303880 525
246124 542768 470
575833 459583 470
225971 988052 525
108262 205181 383
397297 233313 441
769421 589614 509
45697 219268 386
377774 653422 509
311807 229190 443
954213 578979 525
843663 750469 525
145423 52079 375
126093 92160 354
482005 333964 449
561192 806835 509
953071 771075 525
79075 207058 383
650888 68634 509
339619 284113 389
321693 824447 509
694480 766556 504
715639 448563 509
150255 13362 375
512403 218922 470
346024 713714 509
249117 439291 449
735828 891079 525
911522 627700 525
815932 62612 509
302550 435834 449
735555 831186 468
866549 442277 525
446740 338068 449
755490 412930 509
45588 174505 383
582682 422556 470
702658 397805 509
388322 353767 423
571033 756051 509
917721 792735 525
680897 956620 525
176634 573770 470
716420 291432 509
651752 470156 509
466441 814741 509
751217 769802 468
145625 690157 509
813753 520845 509
78658 750770 509
655243 773298 504
971569 784585 525
375302 619425 470
366603 425628 449
357195 444977 449
128599 68884 354
241064 66384 443
792327 288023 509
327772 987945 525
103918 313410 443
549659 429651 470
372258 6176 443
390357 781755 509
289586 535294 470
543743 948696 525
883878 902734 445
955080 546453 525
428618 722095 509
404115 949790 525
136443 318917 443
678600 539279 509
951807 827132 525
918398 459435 525
997766 995366 365
415620 703275 509
779263 581179 509
645320 721377 504
430305 499852 444
832206 887639 525
991804 917107 507
879073 343409 525
1894 843572 525
495391 500538 395
816675 633566 504
37059 923623 525
462489 452316 444
768217 908913 525
395607 975354 525
340286 366136 441
