124990 377385
257231 9531
906368 875941
691885 854848
282004 177813
796385 928766
552326 531998
947366 868442
786665 516297
956080 931828
620541 624555
826037 811127
446152 418743
828846 642234
484331 813810
298191 199483
175802 69801
254980 420278
392009 890661
56665 221541
419442 903751
90945 889634
482303 488824
658671 603086
543934 388757
887968 614249
153250 392531
388472 179523
81394 197042
602578 969328
984993 446438
988979 327542
676921 225046
521084 830636
440786 289241
807094 489342
525956 563565
989341 837254
903211 841093
270671 439717
819455 926518
765274 305377
357514 73916
786390 243463
449624 618105
816175 731870
262852 731427
940159 891853
356401 757823
803993 694185
320841 139336
377419 878436
249888 901586
767835 929336
401801 991012
97297 710220
788515 753187
85392 219074
525865 649671
430456 81031
269526 997411
626470 649990
720483 323076
691369 379437
764280 794620
208220 705088
253267 426732
953070 577146
41534 890400
673641 319328
838364 555227
237180 466535
836173 978930
987950 222053
637833 533156
629506 527306
671295 626636
300341 813651
978941 561186
195403 278229
915191 299226
738004 6905
381561 447856
336115 464379
811912 180088
533212 308911
583972 849125
834304 780311
721603 357991
200107 847077
280066 986229
225865 595926
926523 317836
189619 940760
725570 157136
345605 806936
625833 935420
215732 625540
479037 388808
745206 209556
874224 387335
620699 162335
705305 153743
222252 293554
437433 37414
235299 200898
77736 476645
25977 541127
523899 38317
906222 720023
778974 918022
67862 888358
187057 790737
982851 682869
444754 585028
12519 237743
597356 153704
406239 173658
862331 550418
460422 63618
854602 966213
565637 347038
135405 67164
236353 839511
992246 92731
224807 700717
294075 397764
67150 320564
626546 904760
526524 405553
975919 127149
807702 162081
538455 564795
631797 644839
229237 66687
845992 804103
142754 562039
585024 468257
219233 541090
669359 58815
40698 934988
335313 444093
707238 306627
728914 549181
217575 553223
136792 72798
652270 597254
736125 981281
91452 278042
641112 311571
449687 552247
463112 354001
324392 181621
522492 353880
323046 819278
921398 51943
970778 604956
16580 726966
131228 288652
981959 960943
399960 634073
104557 227448
57566 787333
172427 372999
742413 28472
108576 702699
110353 932973
214182 30767
418980 408929
240215 658011
216137 663956
553279 646460
837129 481206
363057 542497
297027 315105
683476 122969
923474 397398
263908 142820
583186 940994
460720 730845
872215 791812
32155 740079
448012 623845
79750 53035
403079 459765
71085 500920
119697 74341
779664 227037
655096 570117
634823 38917
591626 57163
41760 379888
354855 105508
606783 787727
581844 99241
513616 242354
332378 873125
907572 924114
607255 885386
441489 643757
849325 59440
889129 591888
878007 501836
520603 15775
275725 846143
19109 923002
385371 14207
980222 636163
613115 313864
224529 993675
972118 103975
772538 76146
713796 788078
796071 597022
85492 747531
666845 225301
110617 720133
163835 413527
527123 552299
469549 65518
64130 193602
36276 505544
288956 139140
997614 162975
220674 632703
289394 826793
893472 403650
188923 333468
866675 891328
348846 513803
138355 470694
932108 670321
748517 296451
586261 519993
422832 809327
395537 232611
699387 606438
421127 320610
904415 132043
950320 67325
661747 311097
547261 746596
74195 775643
363406 463149
673120 227510
668093 284775
487726 744171
28202 382150
659127 919873
507757 99987
