9721 937636
555161 763055
452392 20782
517367 200432
336520 583215
942092 863895
673723 940283
964922 652189
404236 659188
384672 261971
200247 210741
735542 622686
602175 649165
740717 979390
812837 455222
583200 727709
763032 80028
51380 303571
273840 58632
602492 918483
900116 722621
689094 119703
522083 487084
241419 355784
813506 329238
535316 945710
57482 670884
819737 84978
44139 927604
626651 615171
773548 359201
138279 878764
847064 233849
884623 255726
524075 740920
18946 389321
721639 472155
170399 514106
289382 994467
673188 411729
618666 210811
148762 548240
395466 354112
111004 119094
946348 988364
975105 280886
270399 578
472725 697221
22069 935439
859583 252506
692952 304790
984112 401700
917878 549951
582299 195921
489540 240502
251289 911413
22328 59281
305985 8541
458714 732653
213981 737858
498756 485296
989062 130280
833774 263324
280545 807861
905496 703720
271088 221821
756544 472913
433611 228084
676817 849203
835074 294839
637892 866322
670356 754015
880822 81528
763123 938238
620817 648307
466035 666835
75187 304424
26586 627230
540237 70812
647199 436275
636232 403366
337649 238402
403301 174867
173476 172523
20181 740397
283400 609391
900681 241467
65900 449211
915184 902668
817041 310771
315410 185884
259110 342256
540887 844870
659553 403282
11971 162129
630357 716480
830688 629775
316019 626926
59224 150061
750608 490141
618652 338430
111596 715797
123896 534010
307693 123506
702548 899254
515783 760764
494346 912611
634846 98951
223951 696750
445371 879337
728798 782398
934392 29236
4543 282811
457484 8539
981270 235274
933361 541553
870772 564252
299140 634635
32028 2965
904543 842666
219391 726476
673092 503176
654552 990243
772894 90130
631621 229312
123050 723999
866598 281180
800222 248963
106362 734933
151960 326648
50429 381214
504799 114107
280329 602874
755716 388733
721781 595440
401840 420257
498351 223517
368157 16742
604051 407640
261398 47452
135551 926593
767327 908205
170725 74835
566156 360056
84274 401022
970847 709364
255936 240855
482879 835843
870650 504426
677009 961537
756578 963608
753455 155821
703008 595465
163701 926166
884685 169985
635896 968468
302649 867890
526769 757767
230024 905127
278389 103599
651746 87409
11661 571096
755944 392655
573150 176814
656455 310673
923275 263435
133018 390529
288797 961136
104390 332611
41889 27720
232241 401465
712194 703143
783902 79092
788285 265253
320443 340074
379378 28440
804975 811333
430804 202331
311757 566959
650665 380104
208398 561702
737124 185557
404986 536027
423595 466383
261307 497272
820092 141807
109244 774925
163678 38756
611381 896549
69981 432977
438005 5755
841469 929371
961916 496205
982137 461869
80910 872049
631237 787444
406225 402354
762526 449579
586920 678308
388081 818317
390580 993361
572099 504903
52206 282639
308125 451714
863882 174169
203737 843024
250692 349725
814308 997368
821109 932654
750352 274744
468679 430973
531721 356495
702442 20933
948666 455622
965372 133349
288703 338873
541601 673471
465591 548125
767943 418696
418680 715127
444870 664509
915202 401139
672288 123032
676829 674505
503418 698088
92524 567016
535148 640666
377211 215162
139170 140903
903104 744585
520470 163983
412241 570376
242445 150208
477906 480768
292963 358067
488766 987807
351146 79294
625768 502733
701732 18256
417711 879281
808402 510487
298274 584474
269437 160181
656248 180760
111225 928453
431234 26426
724634 665804
303488 752489
41361 899855
471587 663213
606601 782463
645685 658487
393215 125397
802095 91872
533790 845594
761145 871533
897824 85080
952216 499626
913869 936599
402385 642339
938976 109016
201564 782135
17783 301484
708246 776819
172571 816168
886508 193863
128444 307154
514396 294683
977391 935640
526873 993518
479431 340629
243951 862447
53317 552370
982298 969983
168386 114600
606829 458213
455915 248646
513037 369404
301023 770654
787954 92958
566221 344615
449464 723811
596521 460940
482402 848064
729156 645530
93857 401603
158219 452900
566301 102387
775385 893178
424812 5033
204818 432985
405883 358224
990418 186328
556007 484895
471810 599132
201569 167303
296954 821225
383711 577891
959010 391962
396203 268937
216399 894537
682637 444271
748829 750921
910936 131941
364366 823488
768198 140657
292802 475959
281179 695252
142094 492921
767036 937987
631346 712672
806623 462614
860612 436945
743920 827481
772115 842725
412731 988113
282692 67387
975730 483810
83248 806402
102214 108629
98129 196967
715578 657550
578256 404601
268342 525582
553456 540168
749569 166492
668781 139063
217449 718008
79110 738713
993583 516292
292912 509402
725678 542786
578805 969965
831019 752796
292014 601475
363558 13462
861812 681781
778622 561526
780892 439187
142351 895171
38990 467574
901754 287379
644871 293609
335431 133923
868842 765974
757686 130303
115438 1042
39057 473957
336509 719599
489698 684849
412097 679485
38578 754401
739549 361508
351480 138067
652853 901882
894478 606249
245882 421714
649284 678874
204918 450518
16590 424970
487149 812362
363088 418754
117789 418630
544797 228040
919939 43349
258305 817818
707797 40927
140042 103943
73791 803674
947564 555925
270239 117777
809489 891529
226226 223552
258495 385824
18284 400766
812233 347576
2392 920167
49370 357774
23294 250132
640951 198329
974513 329841
45348 393132
422739 465139
803015 179424
382802 657984
579932 417470
389947 501245
548764 750230
627417 635703
881556 433789
571687 867248
77614 413683
283370 877884
312572 614270
945686 305367
68238 922012
406499 749317
258236 905137
94104 106378
301358 475299
209216 104801
991544 561655
501579 110054
372496 5966
163234 119642
687560 603262
699617 602168
429644 464072
9768 56139
763587 656704
805426 783967
142626 499620
539925 699080
73746 9623
822201 802183
372544 143730
323120 918509
372736 279955
506526 324157
266 584936
188476 329309
102356 435470
654025 547366
575245 45655
635194 634232
873208 767680
189837 633716
866537 639720
904102 825788
767690 626358
924687 204377
789699 22733
28154 857174
254187 186711
333393 292437
