9485 398292 443
407336 574325 470
499064 229958 449
346382 19054 443
621442 460250 470
824270 576630 509
680501 409397 509
529942 899958 525
590689 169202 470
617952 890101 525
48396 914731 525
304924 255038 407
93810 592033 470
496752 552208 470
732755 499294 509
500140 829212 509
649145 890294 525
81664 95815 333
447475 62501 449
151109 309041 443
406982 576556 470
781793 135461 509
747146 299436 509
517081 621645 452
298793 942897 525
841870 508762 525
288517 360258 441
17020 367377 443
427290 519550 470
361685 109171 443
548754 113489 470
584148 536299 452
632546 857126 525
573766 629039 509
190511 102178 383
116458 548275 470
490628 694496 509
507628 179775 449
672613 492409 509
477337 149006 449
779972 257484 509
533706 529047 377
423455 948594 525
465414 975870 525
868584 624686 525
59326 556701 470
294546 330665 384
781483 801073 468
606944 551243 434
175997 722406 509
132236 871064 525
4503 8654 262
125912 423939 449
119607 573848 470
903126 451754 525
213017 735146 509
390462 852672 525
296329 11472 443
370274 644150 509
368955 563089 470
45008 857959 525
690532 591837 509
222297 477772 449
377674 323635 441
310607 114564 443
140967 593048 470
371840 60669 443
604451 319950 470
954050 74362 525
399977 805596 509
911127 855908 476
7278 544490 470
445471 711375 509
629798 92720 509
133789 283875 443
622391 513255 452
472396 876055 525
395947 479715 449
129503 771392 509
116407 564366 470
131671 232242 443
158096 80839 383
666819 658287 442
107976 710204 509
949638 335646 525
812934 705779 468
468787 327026 449
883015 736354 525
877625 294967 525
284403 82200 443
903534 612072 525
213550 532314 470
251234 419767 449
142661 887427 525
152000 915032 525
857028 120042 525
730757 967163 525
192799 964365 525
955116 799461 525
17571 870525 525
280162 829029 509
601386 623248 447
714960 329872 509
981938 245116 525
247 681342 509
903529 774678 525
537010 47019 470
730469 842855 525
136008 180490 383
362505 184477 443
336521 736067 509
687779 489235 509
955538 370770 525
209585 347838 443
869037 109663 525
513259 616381 452
215341 745555 509
962047 29067 525
417583 115147 449
976294 131614 525
154923 19619 375
895799 498428 525
366849 522615 470
617380 364677 470
308317 918260 525
346059 904605 525
792542 985164 525
408973 912262 525
106262 846921 525
854129 91484 525
870588 411908 525
992902 104081 525
78504 133755 354
351001 538136 470
843294 580196 525
386693 80343 443
819140 256685 509
809005 815713 406
842763 34644 525
293376 571544 470
665004 145723 509
926189 183465 525
718287 275469 509
940281 934291 507
767202 704682 424
574270 467098 470
794226 180174 509
821322 466401 509
41646 980815 525
117347 219525 386
318430 951301 525
525372 371608 470
778091 51689 509
944380 335118 525
884580 178526 525
882325 362252 525
517183 777248 509
959176 986788 458
864558 896666 445
65866 232683 443
384033 624020 470
60090 196525 383
46708 453825 449
799358 865435 525
462568 456566 444
782539 247931 509
503692 478861 426
814780 506865 509
369612 601455 470
484827 255663 449
97400 285427 443
876216 998463 507
985960 504663 525
397786 601171 470
659180 228497 509
534539 850099 525
734657 302186 509
227824 118987 386
887210 196857 525
17945 652448 509
489577 744178 509
414833 187183 449
725152 750350 424
720079 457870 509
792796 353624 509
130343 25731 354
38493 702649 509
690036 646460 442
998901 849554 507
344938 656961 509
832709 54424 509
595326 376669 470
379025 677250 509
946485 775866 525
490731 945376 525
676680 244206 509
781208 154842 509
169684 381748 443
529336 217487 470
341507 488788 449
535078 516913 439
955835 610046 525
591043 101857 470
396847 160429 443
245558 45401 443
602579 557716 434
466092 370360 449
317629 98857 443
882517 496897 525
132473 717544 509
602494 149364 470
751390 742464 393
929002 261274 525
74326 608499 470
143548 780814 509
166468 349187 443
182149 949705 525
935063 175741 525
750174 973362 525
350428 575440 470
783647 975395 525
522154 833192 509
715705 277851 509
743247 775524 468
544216 656081 509
803283 544913 509
395026 865387 525
386644 747631 509
515299 971795 525
453978 308584 449
603065 744020 509
433020 245484 449
237490 26242 443
514991 50012 470
208087 918155 525
916193 325007 525
599745 68036 470
936256 948009 507
405930 480737 449
821583 249765 509
33311 317048 443
618176 679843 509
391892 516113 470
354963 889661 525
470843 878490 525
534633 663412 509
650895 297164 509
514229 286199 470
660665 709123 504
203858 378093 443
62787 279534 443
286778 149112 443
263359 860979 525
532688 31229 470
61961 237174 443
971113 707354 525
694162 797270 504
640331 750726 504
851852 860573 419
125329 72864 354
199027 598912 470
932584 704389 525
415344 836992 509
937368 318710 525
374419 727140 509
924408 712846 525
428808 504856 444
116468 787516 509
532389 595189 452
190100 140587 383
8100 824345 509
172047 618299 470
746614 51507 509
652275 720213 504
591583 231580 470
17681 463455 449
641677 795671 504
814413 342684 509
341821 935996 525
540936 638584 509
497705 965626 525
791787 750389 468
995661 234214 525
641014 798174 504
267076 772035 509
39983 701169 509
95927 15099 351
422489 786469 509
966597 803782 525
341962 238070 407
445615 657664 509
420986 248744 449
786479 384975 509
601066 775160 509
928086 120998 525
233466 246024 381
893517 419783 525
28519 581705 470
671562 620447 509
304398 49343 443
