169005 352685 443
583895 42615 470
30696 495061 449
13298 727491 509
446642 703370 509
121552 339264 443
988362 222028 525
795445 511980 509
733800 295005 509
374177 815434 509
435456 73882 449
158910 561775 470
433423 279563 449
12464 141362 354
607638 515234 452
375553 208022 443
199806 649722 509
269713 82619 443
834994 641835 504
922758 585469 525
639256 296417 509
114700 190809 383
878439 965205 507
33494 190368 383
500929 423181 444
323798 983406 525
883881 513167 525
789954 111232 509
335986 35448 443
416308 226734 449
254313 829549 509
574295 740621 509
697059 174210 509
552842 929455 525
933558 497621 525
475791 735765 509
817174 632109 504
72139 123633 354
632321 118719 509
785200 450976 509
355006 125071 443
149971 274807 443
392663 470607 449
573292 312190 470
71436 242357 443
493157 660248 509
322180 616889 470
744928 991832 525
212015 409751 443
876368 902514 445
367449 582474 470
700576 857662 525
636920 125797 509
204128 797978 509
198425 682982 509
67487 866063 525
633295 824442 504
87363 288586 443
673129 295192 509
689212 212602 509
336140 216486 443
36349 87908 351
590703 99539 470
169606 667450 509
3037 762990 509
816637 861781 525
649305 445466 509
762641 52154 509
82636 778570 509
967437 651048 525
812911 654210 504
148110 444127 449
228937 171008 386
948907 939340 507
870523 383847 525
83801 495521 449
204403 497476 449
836501 992682 525
46246 610948 470
596419 757430 509
529094 895208 525
300599 125302 443
850986 78716 525
511744 866823 525
954381 675664 525
941744 922656 507
868801 898513 445
127029 96168 354
805351 305361 509
476736 878415 525
97573 813958 509
712666 459893 509
228679 426011 449
662615 572206 509
340859 584117 470
260445 259646 345
78908 88531 333
128572 715910 509
843071 324318 525
241663 22977 443
436783 612038 470
516673 158471 470
971908 302763 525
914266 569264 525
894905 734879 525
941536 499623 525
588445 713767 509
61057 75965 330
797335 627710 504
70807 344445 443
911686 909394 476
934212 413658 525
590097 36697 470
36904 996798 525
990535 11080 525
595369 870516 525
566493 862987 525
148792 91886 375
377002 541313 470
403666 188039 443
584426 432369 470
163351 789337 509
910790 332157 525
311973 732448 509
671620 350259 509
972437 190844 525
287594 703428 509
785195 385544 509
131505 355434 443
840893 604577 525
277876 340738 389
696062 552477 509
464206 37141 449
968304 690567 525
823576 862179 525
231339 281329 407
219402 845722 525
72827 658160 509
568303 985957 525
684688 958633 525
498434 479252 426
216598 949059 525
428412 4964 449
859380 997054 507
898929 176175 525
120068 547204 470
254894 687275 509
401065 132775 443
965240 934045 507
163752 488337 449
30284 246997 443
255847 696452 509
842696 648635 525
982551 971884 427
32896 166787 383
982919 126764 525
901648 887468 401
227011 742126 509
724278 174182 509
416422 490292 444
585851 483572 470
20077 370415 443
953220 747032 525
300183 723665 509
599701 308375 470
196743 804729 509
519635 262092 470
105921 874591 525
804491 619619 509
315347 551172 470
479018 642273 509
926436 809159 525
888813 787092 525
826524 47779 509
907522 440178 525
535910 244580 470
63675 655005 509
342762 879973 525
733280 285678 509
631988 225746 509
836287 527632 509
908843 219382 525
332553 309875 384
39635 835333 509
314310 361283 441
112806 108698 323
259058 870807 525
166317 575706 470
904166 69548 525
931364 827749 525
248827 872806 525
387950 408577 436
298606 778142 509
813760 43575 509
279722 286598 376
696003 923603 525
431397 792688 509
458880 955643 525
361770 243002 441
346703 131614 443
103952 191329 383
596888 731145 509
744376 564700 509
661057 191103 509
358631 502625 449
555011 924894 525
174420 483792 449
222310 625650 470
809364 705202 468
4061 697098 509
598807 609069 403
268534 501705 449
151543 973118 525
333044 49238 443
526762 883599 525
788168 903761 525
880008 318298 525
787130 352695 509
