68 21
86 26
30 92
11 49
98 71
28 53
71 77
89 16
67 3
33 94
55 90
98 36
88 17
75 81
41 82
54 56
52 50
14 93
86 11
38 61
38 65
39 99
88 84
89 19
83 26
16 92
82 24
79 20
18 62
965 202
247 61
522 625
286 921
638 695
379 740
994 481
864 794
341 638
230 558
778 807
572 689
852 520
99 985
857 932
542 576
887 257
354 248
452 269
273 20
572 834
499 920
552 723
520 301
731 869
283 386
147 178
130 529
151 300
769 492
501 376
5 436
666 454
452 624
687 160
293 832
185 758
977 603
27 554
421 385
952 930
267 97
903 596
244 235
706 944
900 574
455 191
990 50
970 686
720 619
285 502
448 527
664 387
942 213
589 400
683 291
843 146
10 659
17 961
547 16
344 948
65 40
94 135
553 654
825 979
793 877
661 692
541 41
603 642
601 333
790 423
915 183
813 639
357 384
127 535
529 281
875 881
663 717
260 478
36 947
236 551
520 188
781 711
944 126
931 722
362 868
637 265
643 308
817 29
1 54
206 530
899 383
126 172
404 801
853 124
41 685
888 653
349 547
411 691
125 12
184 814
172 607
394 88
107 946
522 755
892 641
434 56
791 604
485 862
4 504
968 93
696 592
642 944
405 290
578 277
509 231
342 245
566 700
351 140
207 941
850 588
373 218
439 357
117 301
31 275
357 875
763 761
387 655
738 865
483 615
258 414
945 297
820 325
625 344
496 83
157 533
15 180
60 110
820 699
294 521
25 229
157 800
918 789
600 820
970 431
635 882
56 361
565 667
765 580
873 594
310 211
4042 3865
2711 5167
5213 9240
8957 7418
220 7449
6608 5732
7324 6321
6770 6317
5399 6272
7245 4392
1695 1095
4383 2014
2060 8236
8199 9150
3380 7821
2981 4871
6448 4084
8981 1058
1000 3191
7975 4594
555 2888
9273 8174
9844 6871
7841 7520
485 8759
3484 362
5542 7730
3427 6588
27230 54698
73020 78510
87720 97351
19362 67889
91276 77522
65060 55990
27993 48532
28767 7657
88175 66642
11810 35549
57226 45656
53300 35962
91729 49796
81101 68293
15543 31508
46828 61774
31287 23880
25279 25440
103 31324
57405 23011
83877 82606
82877 23104
43340 73423
95514 42966
22666 90360
21789 19542
72678 19945
21970 7448
25085 72626
19730 34101
85924 16149
548158 918868
580630 834239
734452 315358
272631 707143
922365 277527
524378 300294
854212 683003
700763 230995
204283 446779
477189 337227
412648 955849
