92312 889951
750156 322206
385899 203894
149609 304652
669044 506274
605191 399175
627201 542863
460472 760238
554864 733887
800302 508806
448826 684259
726063 175345
730686 645595
440440 899772
730263 770611
386249 599223
280780 723729
309974 898552
929164 67331
494525 486715
745363 828618
550763 45610
882723 427706
902231 513718
55970 201654
76247 733557
188158 585288
229082 29786
913876 236693
30992 335248
133661 875803
35348 578281
439712 569254
579970 461046
330411 798378
263251 93823
390468 507314
920560 225377
939055 971491
827832 256285
315374 761668
886373 208486
265841 86043
985147 782764
95648 384474
793151 458049
901291 847819
112916 99219
492448 37948
812929 284104
590249 907859
346708 739550
506291 504501
231585 975632
754378 492731
685287 26657
93538 473427
558794 17302
409316 118022
545418 755913
17379 975054
151577 619134
621010 340418
823254 447689
198597 549084
443182 664988
739374 303272
625319 675772
137482 659959
814103 376270
661762 789531
626566 979261
891594 901999
444326 143371
574537 920921
188071 537465
584055 996842
792209 33762
892992 92308
260708 828225
763691 898544
538675 998749
822119 375426
960427 418568
300002 109666
251814 678568
911885 720140
173054 756993
538430 695545
214158 190883
577690 199885
940968 227638
135414 136371
692243 220104
890427 655813
849721 307384
954506 661006
268692 351407
904805 707339
787892 223404
307957 165313
916161 473814
443197 177891
856777 992630
552161 768687
133563 180341
864471 974248
647798 532924
815564 501868
353892 108509
850916 950485
34684 330064
655110 581131
88356 962561
359284 716540
808831 700421
613550 490062
481684 305224
241619 360634
611831 852157
816082 192172
401526 968558
526998 995653
527560 473393
350840 38532
235124 794425
318804 624487
608681 823344
704255 810995
598106 808625
138877 783457
475557 362958
993370 802482
831148 70232
864962 214675
905907 369788
884635 372579
813423 87147
452072 196934
178407 309201
986370 90157
301774 935647
950416 746724
916059 191395
326622 219043
636937 479404
64304 488583
174995 75448
828598 695584
505644 101614
891157 223073
448245 414372
761058 261831
403945 815443
934038 168321
310299 349360
694573 745043
553677 920228
61233 239839
863038 304362
200142 584501
388039 836718
271 77206
112573 9018
595439 116510
63507 381796
470707 202595
119415 383052
639278 659234
708437 876476
286749 540516
787730 541175
658446 964892
751862 67624
780964 186561
435888 165831
246289 527292
656537 138149
364496 713752
283093 302894
305874 791604
839649 609795
320376 536723
111062 38212
882143 279006
455460 102706
861674 22390
683015 107489
399301 891056
819154 871751
894879 5212
926731 908814
71726 430060
899055 432164
880980 394713
668591 77252
295728 865697
491426 343731
268911 258933
223226 326317
449026 873884
489910 42344
826821 324950
644180 71593
388980 478677
757413 549997
377707 42108
516651 237183
540843 26637
944869 314751
704812 913451
205582 542448
611806 412636
964173 100865
648243 990606
158880 650324
853071 501576
124933 126158
813676 762755
107222 584470
985272 208624
837114 117159
393348 865276
373584 402152
558833 362383
948179 216611
559732 973745
846399 841263
923322 244370
589576 766044
55275 365258
929707 846969
185290 757511
997901 185362
129010 729839
418429 182879
824243 765138
838263 614579
353579 566214
37123 418191
728162 715521
366202 675888
752747 879320
940504 207629
142873 720388
256110 37437
17385 165668
838613 58457
555251 787219
974941 265106
