533656 56636
682088 899882
169355 403997
516653 74061
675225 795939
921443 55206
24433 747681
501337 832464
898270 397997
949897 626780
598001 107272
579725 227616
184171 301877
900596 875920
963299 627612
721882 852589
613862 72740
764902 978707
330027 151759
227938 914574
694885 898029
260918 50575
734026 370774
176507 870214
89797 291744
146101 788812
629669 465028
736675 221693
269479 998975
392470 901346
290197 803394
988612 151420
176527 30300
570916 656020
480818 428710
504277 494159
563931 909683
559800 171799
985148 119043
515407 794994
385960 443914
656715 942787
774724 615954
748858 122630
130028 875048
411707 351277
889756 369436
429587 741645
478842 592659
363116 775535
48922 855984
262572 211703
379390 971276
598559 579638
452262 269134
9082 238104
241336 514308
862738 841533
39748 325539
272949 986660
759337 514818
35754 812455
46796 227342
236289 917648
343993 380354
439668 480941
459734 898708
271838 895023
726800 885684
189612 798136
243918 237382
74506 841406
815432 894702
512401 846986
352655 938919
34763 394092
954384 986910
704936 751634
373348 322966
84539 505023
426513 814186
817953 133443
612737 66718
623852 793504
648568 370716
35270 152921
224788 748617
343239 412594
987089 256703
957046 263805
60868 398455
783215 953123
286040 498976
500656 804323
366290 702612
571432 804409
36864 488402
98389 608343
886865 105914
716203 214414
806834 18353
590548 331028
554383 857084
826047 193053
580428 893878
190144 213449
494181 8981
181676 284352
490938 558972
893268 5787
121223 264643
87238 443112
886696 17463
567117 753756
338237 702463
648365 155268
596877 64838
784376 919374
93638 832174
528266 599921
715944 479636
968767 304676
186069 951642
573561 710111
317789 837512
617197 587246
850047 99165
405322 509645
466046 668633
211709 436772
201662 121616
505912 459714
80041 311444
269375 557215
670435 793614
769586 136631
798193 185182
749579 41046
732586 646853
306494 170390
818372 711601
66494 758114
735946 323012
473298 496224
407914 250334
378431 303018
116732 713591
816539 191814
52659 112755
797889 891534
878374 728047
85479 205995
145019 393968
38537 638675
584779 101160
174345 389514
402647 707494
681909 40565
910952 750483
320626 852587
777639 536647
285394 302872
254142 865687
18271 743219
138065 618980
175042 568204
520718 517755
978302 667602
949082 97472
951994 216010
951406 103271
394982 755366
511047 958852
460539 330673
193632 84283
216460 244060
225178 360601
909512 948500
10133 217126
420734 277321
634616 165177
166293 197380
716048 91181
6840 736876
292311 601850
928546 901744
826643 449201
79463 104945
278352 778070
14614 181964
617443 699512
233456 43502
521058 317598
424295 206283
699708 211351
353174 925962
239038 990075
860233 396441
267985 511915
392908 655883
450172 200007
117462 335339
650740 678814
771275 512664
417849 857738
775405 445030
517820 307873
422483 308064
588064 470072
429311 417403
165222 726370
123099 897047
988171 514337
733307 222389
826196 358139
824412 108378
501366 279490
741325 731208
197085 367275
745685 422704
267814 119789
159285 345800
219264 928344
736994 320691
128468 911615
345556 934784
789996 325821
268846 115927
776015 549194
137467 526835
247702 948981
502729 755152
825608 965999
