63 1470 182
7623 3812 262
4892 3002 238
6534 632 262
1751 3910 238
5169 238 238
1897 1544 180
8430 4717 262
1964 1481 180
8338 4290 262
541 4027 238
6182 4914 262
8643 1193 262
6597 200 262
2746 1264 209
6156 1884 238
1000 4848 238
8564 2819 262
3696 2982 207
9676 1381 262
4165 3674 238
6062 1775 238
1718 319 182
2468 3485 217
9048 4076 262
4164 3012 238
8977 823 262
8199 1841 262
6896 329 262
1015 1530 182
987 3562 217
9494 3327 262
8496 1497 262
4172 3267 238
5645 2327 238
2504 3117 217
1467 3465 217
2247 2238 139
516 1089 179
3251 2326 217
6949 816 262
3122 3472 199
9887 954 262
4416 270 238
5848 1205 238
2967 3274 199
3534 3807 238
8298 3091 262
9340 2012 262
7041 4544 262
3925 2321 238
8303 1772 262
3663 4030 238
6630 3032 262
3997 4899 215
4760 4527 184
561 3754 238
5274 1535 238
7349 1900 262
9213 323 262
5448 4367 215
7992 1501 262
3852 3422 238
5550 1789 238
7657 3878 262
4204 1040 238
3204 2542 217
4974 4762 210
8315 412 262
7841 2721 262
3607 568 217
6963 464 262
8964 2824 262
2663 1564 209
3212 968 217
532 4239 238
447 4483 238
2877 3654 217
9647 2914 262
5003 785 238
9832 4168 262
8183 1567 262
8205 816 262
3652 4732 238
9805 4555 262
7912 4488 262
4373 1730 238
1515 1428 172
5823 2324 238
2329 795 183
535 4276 238
6402 3339 262
5694 2531 238
4560 2576 238
8968 429 262
8776 2771 262
8096 682 262
905 708 179
2684 884 209
5970 9 238
7947 1504 262
3040 1145 217
6778 4699 262
7317 1273 262
598 1394 182
964 4218 238
5931 3422 238
2921 4254 238
6219 4490 262
5030 2877 238
8587 4290 262
1623 1576 167
1703 3162 217
5287 2849 238
5974 3424 238
8316 2805 262
9416 1063 262
973 2135 182
1196 4505 238
7747 2515 262
6621 512 262
7933 2995 262
5852 4961 236
7054 1489 262
8874 1613 262
2418 3050 217
1340 1301 177
4718 595 238
2465 4898 238
7444 4731 262
6655 759 262
1254 2341 183
9721 2235 262
162 4592 238
3965 1350 238
6299 836 262
3977 104 238
4312 4932 215
4542 3712 215
7558 1890 262
4237 2568 238
6937 2211 262
2926 2531 217
3407 2809 217
3664 2351 217
2069 1719 180
2730 357 209
4836 748 238
2384 3465 217
2531 215 209
6850 168 262
1792 2491 209
2606 894 209
56 1535 182
2581 2250 209
1763 4141 238
5146 3646 238
398 1820 182
295 2022 182
1696 4069 238
6458 2556 262
494 2807 209
9533 3534 262
6906 2103 262
1331 501 182
5205 999 238
9806 898 262
6757 1697 262
5694 2263 238
3826 953 238
1620 2040 180
7339 4325 262
4484 3732 215
326 3513 217
4377 3628 238
8100 131 262
5586 1478 238
562 4304 238
9322 2670 262
2828 1257 209
485 3170 217
2332 2269 183
5367 3617 238
1632 1348 172
1279 2743 209
6474 3326 262
7824 367 262
3552 998 217
5952 3814 236
1172 4206 238
1577 3599 217
5518 608 238
684 3113 217
3653 3190 194
8742 2409 262
4686 1206 238
8331 1541 262
6811 374 262
9167 4927 262
2208 4660 238
5367 4757 210
1043 1082 169
