931873 523178 525
495607 804822 509
719525 502319 509
626058 576335 447
330951 913031 525
535476 639474 509
517856 628743 509
528082 552941 452
722745 550825 509
739161 590384 509
700489 958094 525
807752 970023 525
992956 744186 525
343287 884992 525
411503 777502 509
341253 643581 509
840377 693746 525
503989 896173 525
438732 741629 509
739616 866141 525
919869 809267 525
553794 596056 434
417808 947167 525
986766 748326 525
388666 691120 509
322923 554602 470
968833 696563 525
344320 606678 470
500776 699694 509
530605 973463 525
673616 802736 504
393242 796418 509
889101 833887 525
819150 526003 509
931196 919296 476
925765 596855 525
905594 646658 525
555745 967827 525
339852 808668 509
875676 935584 476
860783 615782 525
398602 938652 525
734194 696723 504
323289 880129 525
946018 696363 525
476855 907058 525
809834 875291 525
678067 573317 509
889762 865671 445
950906 950039 321
389782 632783 509
980245 993254 427
513843 757452 509
597551 856158 525
814947 852087 525
663459 839142 525
592749 660663 509
690699 650821 442
909176 587361 525
912943 748616 525
488912 933851 525
538900 918350 525
301746 525847 470
612242 980499 525
313787 560898 470
281194 577988 470
412538 801432 509
926186 689934 525
522696 779094 509
459375 814291 509
885644 724020 525
459306 908007 525
329616 927554 525
620083 619206 341
664204 604318 509
538601 811796 509
336375 868161 525
469702 903019 525
426923 821252 509
688185 715165 504
355565 586091 470
799046 678792 504
540679 552643 452
969859 738203 525
408431 719619 509
453089 721111 509
432143 928111 525
935393 504806 525
560006 555730 359
396424 567457 470
970099 683405 525
567023 570068 359
899457 781346 525
914645 835257 525
712951 629155 504
771809 840430 525
681995 592719 509
998722 884771 507
744070 724587 424
900384 511534 525
360279 786596 509
572596 573475 297
511371 972068 525
423498 775646 509
253141 559386 470
566543 625015 447
771603 877430 525
717321 776046 468
432108 542941 470
320697 561305 470
935933 654617 525
710408 543360 509
564511 672649 509
648758 726844 504
984896 992500 427
778354 566539 509
349163 995626 525
759388 803251 468
278298 683317 509
603586 957638 525
653651 698011 442
263774 931658 525
751885 963121 525
421229 804677 509
574952 511915 470
943466 770257 525
854579 604233 525
334516 584410 470
279653 581537 470
711197 894194 525
847267 590321 525
767355 660949 504
690935 961872 525
374938 777535 509
479135 930688 525
618278 796790 509
333545 821555 509
790882 527990 509
861818 720026 525
952926 651785 525
665871 842838 525
651184 836280 504
826962 849850 525
292202 662773 509
682651 943225 525
418803 834490 509
870197 921873 476
409136 917247 525
953148 696017 525
347390 781308 509
760035 964632 525
251360 517961 470
594509 591352 403
693640 794270 504
341258 967366 525
800172 846009 525
876835 956193 507
788415 583713 509
765965 525417 509
282230 806874 509
548496 849802 525
372583 919378 525
287409 640260 509
332926 794940 509
856703 905941 445
273729 959630 525
259421 883660 525
640893 516750 509
601247 709105 509
866013 886335 432
688232 524998 509
556048 630663 509
968845 706949 525
614407 842195 525
707038 769666 468
278929 791855 509
330754 948841 525
631622 902143 525
936168 748362 525
670357 737453 504
801091 966759 525
842835 625311 525
670070 571850 509
282402 804660 509
884375 974300 507
844662 923248 476
852751 700476 525
414686 579066 470
392341 713762 509
470513 512179 470
308599 929823 525
926330 571401 525
436580 536136 470
956626 657963 525
969551 691666 525
569087 773097 509
500485 570280 470
395759 564391 470
861751 657576 525
460100 696765 509
637548 956221 525
775622 538469 509
795073 920285 525
631194 814925 504
385775 704870 509
389832 882949 525
281606 864450 525
815225 919433 525
398457 870196 525
616744 738002 509
293592 885534 525
837530 959023 525
360688 771712 509
746810 927273 525
504109 514091 470
389351 940549 525
590329 590955 359
276305 669619 509
608738 983443 525
802815 620251 509
743178 800565 468
492930 820112 509
505911 510126 382
394796 851023 525
916803 540925 525
870672 947327 507
533406 654250 509
302088 566169 470
989613 666700 525
977115 642537 525
438809 856477 525
669976 910729 525
395513 829672 509
537683 721341 509
345638 773006 509
481470 568634 470
401283 834111 509
368163 984198 525
467250 928573 525
528751 569475 452
978976 573382 525
619557 764132 509
763051 639209 504
738530 853601 525
671219 962303 525
583465 828650 509
675067 951469 525
851448 592683 525
823070 583695 509
759648 705689 424
654253 504266 509
604447 905616 525
282450 822797 509
666018 566626 509
984902 840422 507
826739 912185 525
733022 919840 525
266062 976736 525
340376 775781 509
469379 924024 525
369070 610124 470
624378 973005 525
847033 729248 525
510850 633132 509
599343 586127 403
418729 666250 509
764178 829277 468
904242 933608 476
906141 823594 525
695971 602133 509
334183 567356 470
980038 847760 507
587378 970320 525
602100 535883 452
585454 923046 525
920110 679835 525
386033 540934 470
484297 504260 426
250093 973686 525
892427 892833 295
