1679 2893 209
4518 8912 262
3752 5086 215
6225 9367 260
2083 5102 238
7463 9568 260
2921 8976 262
5429 7018 262
6135 8827 262
4479 7162 262
3198 4935 238
8056 9126 247
6754 8062 257
4812 8327 262
1346 5469 238
3690 7925 262
5241 8301 262
6187 8042 257
7138 8274 252
1234 6345 262
4421 8982 262
987 7823 262
6783 7431 257
1985 4510 238
2593 8661 262
1937 4829 238
6781 8917 257
2199 5624 238
5703 9863 262
7928 8967 252
3482 6539 262
5542 8378 262
7250 9995 260
6147 9475 262
2281 9035 262
3186 4278 238
3597 7465 262
2571 9426 262
2048 9678 262
6741 9184 257
2142 6772 262
2895 5974 238
4629 9572 262
3115 6853 262
7889 8965 252
2871 8887 262
7496 9635 260
1257 3527 217
4648 7573 262
4856 7999 262
1801 3209 217
6746 8971 257
5457 7215 262
1214 3672 217
3561 9511 262
7932 8542 252
7973 9921 260
5811 8369 262
5292 6837 262
8135 9945 260
4235 8789 262
5426 7328 262
6726 9845 260
4059 8607 262
2322 3639 217
7621 8806 252
7849 9727 260
4579 9048 262
6697 8969 257
1106 4203 238
4937 9724 262
2471 5319 238
6946 9912 260
2472 4959 238
2116 5947 238
4064 8576 262
2617 5951 238
5135 5794 236
4640 8065 262
5641 7154 262
6782 8135 257
2869 3182 217
6799 9541 260
3286 9532 262
4516 8445 262
4864 7357 262
4473 9492 262
4803 7154 262
4166 9042 262
7927 8550 252
1294 5715 238
3221 5789 238
7555 8500 252
1115 5904 238
3265 3779 238
6930 7801 257
6429 9286 260
3525 6482 262
5411 8101 262
5460 8150 262
7521 9541 260
7121 7897 239
2580 4876 238
3655 4803 238
6230 9205 257
5457 9852 262
3188 6630 262
4473 6494 262
5235 9387 262
2374 8555 262
1101 4040 238
4326 7133 262
4655 9078 262
7681 9016 252
4810 5971 236
4672 8096 262
6185 6687 244
6375 7380 257
4297 7233 262
1099 8192 262
6162 7425 262
3626 4645 238
3431 8480 262
3173 4069 238
2823 4745 238
2911 6094 238
1562 8462 262
2606 4959 238
1455 8260 262
6373 8579 257
3294 5731 238
4511 8500 262
7170 7644 239
2886 9481 262
4295 9789 262
5769 9109 262
4702 6805 262
2771 7731 262
1889 9850 262
1549 2639 209
5935 8495 262
1584 8753 262
3655 7524 262
6229 7954 257
5059 5755 236
3319 6761 262
7649 9914 260
3693 6281 262
1332 4442 238
5792 9471 262
5797 8065 262
5429 8852 262
2141 3602 217
2056 7004 262
5130 7216 262
1935 8081 262
7329 8459 252
4713 9937 262
3199 6322 262
5126 8602 262
5561 7154 262
4711 9530 262
2722 9921 262
4309 9467 262
4157 6537 262
2272 8051 262
1894 9260 262
7543 8593 252
3103 5113 238
3314 7725 262
1445 6460 262
5797 8905 262
1984 5001 238
2625 6560 262
1327 5261 238
2620 8067 262
3249 7451 262
6802 7742 257
2102 5801 238
6990 7156 195
2525 7637 262
2976 9650 262
3684 5080 238
7456 9666 260
1159 2759 209
7437 7865 221
3756 6782 262
7359 8575 252
6177 7996 257
1344 3816 238
6333 9364 260
2567 9802 262
2804 8899 262
5789 8913 262
3442 7731 262
1619 2919 217
6296 9620 260
7581 8679 252
6536 7087 257
7314 9631 260
2707 8920 262
6767 9823 260
6334 8664 257
3529 9271 262
2400 7831 262
1911 7880 262
1592 3302 217
6115 9255 262
1176 4610 238
1624 2968 217
4901 5500 210
3624 7324 262
6149 6836 262
4754 8545 262
5520 9209 262
3786 9567 262
2144 4115 238
5046 8523 262
2254 8131 262
2859 4073 238
7602 9205 252
1016 4164 238
6790 7905 257
3801 8839 262
4980 9993 262
6134 9985 262
4890 6145 236
3082 9657 262
5465 7451 262
2629 4452 238
5704 8425 262
7039 9620 260
2841 7467 262
5397 9940 262
6070 7493 262
6256 7057 257
5752 6679 262
2982 3850 238
5227 6006 236
1110 7252 262
6699 7423 257
4826 8746 262
2775 6467 262
3290 5976 238
3594 6802 262
7122 8583 252
4516 6829 262
2866 9453 262
5387 9525 262
2860 4096 238
2554 4834 238
1465 4866 238
