139777 186432
622037 224315
706430 177107
636656 647088
60034 345124
852744 241437
506155 511110
542323 682778
531058 202207
389 813139
65595 170758
159005 429020
441078 133305
716806 939161
688946 925386
56308 384491
278195 501040
846904 815823
749959 398607
70668 409029
807318 362326
998158 480661
456312 452912
786257 468045
702502 84887
329907 898630
462284 399513
752029 318690
928578 377943
41341 738626
454631 795240
678878 525643
719226 642719
733111 412016
49772 606671
953533 827379
130500 785545
95144 632634
384145 380436
506008 994000
745326 205682
379171 413412
836083 511635
339949 202881
497017 662377
587475 857213
340153 9413
863608 47409
109742 846727
71260 273776
139558 645617
584370 926616
144778 938259
100153 411942
582181 36384
242597 461927
207529 807214
911903 137949
795342 784230
389482 162865
694950 325588
72946 547381
335474 141194
424861 110055
123681 768533
630587 472930
179189 164475
840642 671035
862427 180769
341021 38847
815640 194225
700867 973427
669212 79399
452269 389212
250995 119873
348103 710387
46912 525833
215740 456990
417805 506469
913910 168609
671457 13329
824329 542260
486782 418957
508668 860087
318187 995665
861894 360279
90552 319001
69505 987615
882105 926563
7435 102494
20357 805001
649933 526392
300935 40535
231274 276243
589880 31558
7095 820151
813521 878399
599291 811
391565 690170
78521 357164
744313 846395
694347 182821
798357 778086
126735 951498
830944 340755
757257 579765
132405 20745
448537 65643
902762 335809
805622 506839
437294 851854
250680 88217
904156 856708
105821 755716
447426 504029
271098 214133
540119 517828
310290 287291
692878 871353
257129 692565
129271 724259
640249 603221
339309 14323
878252 731072
956046 551095
415989 718238
88183 467793
688251 726407
192416 137965
700350 660723
479704 600587
557337 387743
5222 783992
754879 526562
67064 139884
738479 623155
84283 883438
640079 302371
858128 402785
823745 305698
147507 666214
14529 821438
278579 235835
343289 216117
269833 206869
30234 477456
181205 460783
827245 224974
805440 704101
450595 796146
100923 936732
346023 125114
671268 455461
754938 705707
81899 57825
103477 586314
754358 885986
608842 286727
188584 679083
177768 405165
981668 192252
758773 981073
243498 648161
722182 585877
425354 210079
405449 723269
73878 494789
783552 215960
960103 19209
686161 770852
478569 940101
530110 386939
465809 804903
95056 466016
374404 459597
971805 378462
339827 478229
527754 973581
133181 531165
948637 177016
701042 245567
802884 138650
599900 276965
255178 231779
744873 773359
264814 720824
488861 792956
636993 495025
255044 463528
221509 748082
14947 810552
458363 647049
70825 242012
191564 563338
971727 245250
596614 192900
832974 204336
696156 225064
738152 8366
797451 441471
945059 221595
330089 742815
273343 37973
361684 911181
439713 602548
558288 782619
273880 703340
391348 658517
26474 546201
605217 306628
650328 331216
462240 823564
751918 505078
267446 729534
964580 220561
399087 308235
322086 254546
443405 354375
45939 956587
238982 149540
546999 615392
829673 523302
582943 217751
260926 306412
716616 652002
177962 642098
429892 816260
548362 462468
376471 678109
395882 588837
576705 783735
597405 507354
226034 189477
431896 545140
897078 126425
907152 368332
926662 85392
547151 579043
93779 319087
579943 929731
425414 366101
653678 424555
180131 233931
507746 163442
743765 91139
584145 675523
374050 930024
618311 920259
618763 472084
664752 912562
786363 651
44793 759923
795437 710216
384212 930350
956358 626118
594798 650378
504340 257586
512183 148522
405973 102686
112612 926899
796831 812463
66789 948091
946144 273823
352238 796076
517354 311830
232488 414914
337347 26985
30034 292108
550326 596883
362754 797364
787765 354822
438397 765275
273546 39083
2115 908697
864668 39687
8902 672428
