582146 97279
588371 237935
775916 666979
837751 943253
347655 442077
263881 261098
80622 235504
892136 407908
144758 419718
593623 726034
950954 477576
611160 381199
318408 944010
560916 651513
142720 832650
810715 56983
968216 802661
555003 67695
740027 388478
481624 24379
539791 588714
657055 206801
293417 990430
144387 693456
280158 391081
912313 770268
769326 572812
793603 166543
264285 482458
607913 323147
642935 575436
76584 230920
949743 492883
825911 116552
716398 558753
600674 398713
466538 807246
791053 888927
494530 380798
513851 169736
99138 175008
782815 446917
199941 549260
753086 943073
667735 770427
631237 76615
759677 611932
605041 253202
765772 191563
66099 85980
345388 698839
473597 256395
60755 136343
438954 29203
299048 579319
998782 643236
115393 743980
587562 413792
526274 847337
921589 402985
436099 840005
862240 941175
689263 98318
339249 115601
705875 573217
583684 581581
781379 210772
245471 697185
408611 182808
451766 34001
915428 96006
500190 774652
301839 883974
674859 371997
407651 529185
623352 115379
444969 110263
839213 926150
489451 925049
57257 787629
740030 600957
787910 703914
228916 171535
792011 977544
191966 71775
28934 897667
494135 884613
498601 638458
345491 457159
441888 281748
40367 697613
564133 398337
605567 962445
302886 549242
53068 448296
673760 401111
398508 414183
897150 889310
728833 377000
833835 7697
380753 646902
238853 355840
726270 699091
980818 532472
152345 914589
667719 828195
568830 165044
570470 440995
182135 565172
341942 614851
331646 471393
791857 684753
901752 466279
896920 695
194393 635876
300715 98706
175365 920568
789368 288768
692204 700020
616678 37430
602263 58902
96312 137244
746688 372459
578934 675612
359311 949629
788518 242403
809057 476281
504811 648712
540266 912305
747880 668404
697412 313657
945835 959541
199032 774068
48290 374629
960213 311063
185806 326553
553858 57008
269529 741371
847963 558347
875390 399636
59516 334769
863720 144662
225140 104955
447801 519171
304489 246701
843845 881014
4402 126560
210055 944149
940210 907806
313893 992857
935110 325407
254377 725124
99371 702793
610143 795451
828186 177644
584254 647780
10334 702499
73126 156057
549337 890909
99687 922902
764685 190973
719795 826151
362694 185475
336160 548527
444960 41494
335436 377456
456877 262214
101873 520053
69558 929810
754841 542571
735525 570680
407747 314090
61896 622881
352295 11000
204327 240580
334762 321842
200824 831392
9880 981319
536578 289911
733125 157787
259330 364343
83658 20321
649295 973058
897839 19445
788571 573976
137238 29856
371922 882128
615160 524014
754265 329329
462275 372201
539657 664795
224513 697661
982462 6693
655426 454717
93433 471940
590370 43231
621739 235265
771291 324563
18586 498379
128645 862175
78844 386263
820876 74282
204226 229947
282107 256476
134816 43797
635113 108999
555374 260214
89379 486333
198629 945762
362951 576057
939858 790141
742016 609419
905364 133060
123571 507825
802031 173922
274236 577460
515970 295399
582243 478504
525322 124323
779782 215941
825618 551981
469357 825673
875660 440779
800504 762705
537705 155341
312160 737390
107809 373549
781147 891242
310516 856617
898740 755604
566620 987183
734898 394422
933590 920558
243773 496674
865267 136621
514221 954490
340820 28514
75571 639766
972465 919155
331506 675071
417310 557713
113966 483922
790728 715595
424065 300990
807024 975109
658557 624570
57673 183861
8014 301666
178272 334063
256853 550258