443474 663270
130721 883195
9755 356742
790623 787326
9715 684937
850817 859717
115548 292730
38756 478647
658263 134031
269161 852882
156435 451120
749949 619457
330287 35879
742319 281133
10845 421332
553454 141333
829264 497854
192238 221799
258715 411573
646260 100659
82814 154567
699142 697409
751917 548866
891014 27522
185529 164415
118530 844373
574873 725816
680229 765856
239715 292320
729541 25385
204960 194115
415859 887803
729259 124689
583552 250782
277064 353500
185602 852294
879916 879535
740169 444791
571440 606066
832810 879624
357353 725314
548030 603038
475187 787290
801844 241137
324794 270676
326844 546598
75641 297345
739477 177924
276812 536816
826555 523317
401692 160674
702477 38376
859846 321082
448266 384915
40262 771869
713746 2418
265609 71593
662301 317728
639449 593739
636296 861286
703971 565091
60933 518594
29942 849926
284335 317478
30968 74085
214185 661982
89512 641305
742939 287666
150295 433915
613483 99276
553422 571794
82528 343453
281443 475014
201668 652232
187497 860949
168931 152683
640214 125976
436687 581934
220709 47816
31330 777231
281377 238791
873572 833749
884128 298192
195177 742940
92622 599418
568329 672226
243473 876037
306678 601161
372025 468912
266781 464782
149180 61784
749162 16930
338927 889831
504076 563139
867167 507634
713770 514190
113445 294953
498506 196462
843412 481788
333451 325657
64296 403932
866538 714734
217910 267506
399240 746065
478643 476769
291610 229102
198041 138844
492831 254213
571987 73695
22588 479920
50097 445470
762823 105087
794827 120228
527517 660189
882430 426640
280932 409223
463886 95749
14506 346957
247136 694265
783294 840718
122636 697983
622984 706954
161666 235372
851062 872838
257013 763057
556153 854511
86303 645844
481881 242741
62049 831043
690336 683723
790705 569269
273446 608871
761615 515271
857029 431535
436222 141870
136187 624867
230395 454116
810118 462056
881484 51885
723499 839294
322443 600789
844644 789667
383996 769854
755956 847095
632488 876321
781371 341426
755845 311918
421190 407089
82647 738946
892220 376079
55943 556821
851617 496954
147980 698135
621457 532166
487590 800312
324691 583261
743318 582400
93286 761129
267714 596491
53502 710697
134405 894455
369373 184046
498505 673062
49774 129508
658441 525150
321948 624898
840328 170872
492445 139360
860854 838309
245989 780812
297735 229626
510095 166904
328341 879827
128481 49977
483615 837985
18350 726813
480125 32530
388554 239582
714959 407429
497174 188659
784159 639668
150027 105118
4630 724677
842726 607483
157448 102256
285163 360292
765074 26761
733855 698429
213279 434712
201042 380028
549565 742926
127783 219870
417727 264044
60865 707911
660319 868735
390456 296170
722647 196301
337510 719072
731411 185640
44362 715224
307875 339267
217036 618841
884211 894762
884168 283096
399172 443143
11001 71574
250700 573562
667724 852277
54779 426833
99776 662625
67799 841146
118153 731917
769527 308165
460073 561325
739105 768701
365150 266281
31685 306102
647570 30805
200647 186091
420156 672696
730443 736483
751184 785082
842819 241677
7126 511385
859683 396432
666766 636824
84008 342699
335020 329089
618353 339568
305632 406419
544107 146827
410196 558612
133258 386788
349390 23764
623956 518833
643922 410091
497940 820815
229025 770010
729813 730379
683855 424860
438696 727121
258732 50261
826399 513720
234808 535821
896277 152412
576849 887888
92439 348723
804032 355144
516428 495032
604821 399411
809286 594501
665460 833019
342387 877460
871929 456683
623254 509559
106723 374776
451433 797783
719713 109360
276738 698944
254836 514050
275878 170376
348552 755383
521842 47548
793181 553983
817265 787667
792910 241294
443209 828061
154573 818342
282507 483517
344913 236815
90751 182557
896732 637526
445359 118298
518606 475872
461754 663022
104834 581755
400249 161318
802776 526600
589318 798638
226814 146224
447887 419213
695945 685848
666562 891960
46821 117651
421522 209320
243495 153826
553340 427749
16000 111287
33911 393366
223698 838254
342351 43231
501728 149852
541912 130220
447362 574364
127101 888236
845229 276950
865627 508220
560627 235688
570072 240908
740815 343147
