490476 497673 426
779331 288035 509
478984 96490 449
34678 630203 509
142434 494671 449
985845 63775 525
513660 842251 525
494101 811877 509
874390 34574 525
263221 556993 470
935637 908975 476
649540 850890 525
159572 603720 470
359411 452467 449
262643 602396 470
632806 960647 525
559297 842954 525
350764 774158 509
716032 432681 509
522227 340228 470
684686 741042 504
657121 831825 504
232397 937181 525
805732 160253 509
220962 695627 509
641276 938546 525
230790 84295 443
267606 757806 509
692731 936010 525
295203 199116 443
94168 605776 470
618081 558248 447
411843 396159 449
226616 509910 449
307747 696469 509
31727 91698 351
406362 712575 509
128205 120638 336
923445 95048 525
292337 202532 443
66270 316303 443
563349 27855 470
728417 991293 525
558165 710680 509
620387 649374 509
435563 988187 525
549008 956650 525
849920 755116 525
23658 960920 525
47962 731236 509
330946 720838 509
230831 167148 443
933393 529889 525
964521 737814 525
169106 780699 509
956870 812534 525
469885 248218 449
82196 326231 443
446137 712897 509
466770 621104 470
507592 469064 426
469676 4876 449
261975 890238 525
485330 589442 470
210509 742997 509
72826 89348 351
604481 121780 470
46448 662834 509
307189 820996 509
785819 223669 509
216044 179255 373
507788 105648 449
405564 652678 509
191294 91615 383
429739 257685 449
408364 878597 525
832783 541749 509
866489 101847 525
634041 467105 509
361979 726089 509
585496 834014 509
926039 148741 525
297736 27754 443
323766 2141 443
948054 414468 525
24810 618677 470
32106 75070 340
693198 525720 509
181522 760833 509
253848 79147 443
839066 460905 525
775251 312792 509
379305 647721 509
287850 942860 525
655761 933109 525
403366 68243 443
411297 16858 449
984910 966513 458
184201 669022 509
429795 60510 449
189789 718294 509
981795 930808 507
948941 123069 525
985039 390529 525
180586 791048 509
538311 282378 470
496915 617162 470
799740 732745 468
422279 36615 449
443830 258266 449
138232 224535 386
688792 340967 509
252249 304465 407
839563 838301 388
707125 929625 525
383697 300506 441
560233 705194 509
959963 333449 525
520310 823798 509
68014 957880 525
353161 806027 509
40700 814969 509
302714 655764 509
31893 469478 449
275256 456939 449
970776 653880 525
601615 243395 470
247543 302262 407
169750 582330 470
72917 695185 509
944567 571394 525
277259 297674 389
291961 825336 509
415942 364363 449
918879 197974 525
771436 308936 509
238104 459815 449
853100 271914 525
990948 754568 525
8742 874527 525
441896 353947 449
405313 659047 509
931690 722867 525
407893 219496 443
724146 754654 424
456000 425690 400
650064 846216 525
621492 830182 509
647081 594443 509
797800 711236 468
682969 271693 509
886463 975690 507
876536 983498 507
396398 90521 443
569896 452599 470
525399 83607 470
435554 376464 449
440412 262364 449
837194 597638 509
735618 776288 468
982510 814054 525
47237 810180 509
357068 452416 449
721875 470749 509
187487 590698 470
777144 321550 509
124199 623129 470
562277 509812 470
801636 681478 504
539007 948296 525
222414 91555 386
151160 928212 525
114818 419924 449
321540 833694 509
726440 996584 525
543279 826974 509
945209 212554 525
487225 534830 470
456101 610469 470
759402 907857 525
69628 410233 449
424231 991808 525
725490 60264 509
593947 676253 509
674232 886123 525
766249 838805 525
811673 53867 509
192290 668163 509
990512 969375 458
939837 842953 507
189822 866077 525
947422 920735 507
761053 449999 509
717783 873875 525
854884 307877 525
418055 245869 449
27866 196225 383
471347 867748 525
605745 641503 509
255728 997960 525
842911 476116 525
871006 209962 525
526067 538400 408
500696 470631 426
467420 498597 426
147412 272804 443
406662 7196 443
180663 955832 525
977343 750464 525
246928 479663 449
586216 749927 509
362867 704806 509
997268 153663 525
248354 583621 470
864604 465828 525
995706 628607 525
44157 872722 525
914449 471884 525
67463 806314 509
781901 694179 504
419662 218715 449
601320 743810 509
845367 200493 525
955838 769188 525
721684 952749 525
808427 271620 509
342883 148075 443
533662 857069 525
359710 232998 441
131341 326274 443
688979 40563 509
479844 550749 470
681306 672060 385
975174 274089 525
479874 281399 449
26356 40056 324
287978 14657 443
622930 56522 470
787299 265569 509
729714 337103 509
54881 162803 383
287078 248754 407
547449 536816 452
205113 628543 509
793132 358075 509
327094 652310 509
422274 393239 449
428152 154170 449
371084 856182 525
622161 363206 470
801205 176942 509
874634 212752 525
514166 831193 509
37978 828211 509
343385 884588 525
698158 479503 509
124446 647517 509
554018 551827 346
187133 129290 383
942391 811484 525
544033 718775 509
207466 814856 509
798618 296898 509
921127 481023 525
470396 355049 449
928946 567593 525
877638 834024 525
986716 649987 525
521602 12917 470
428013 530734 470
979385 936103 507
499845 905818 525
378893 317234 441
829101 247388 509
550279 613033 434
